<svg width="12" height="20" viewBox="0 0 12 20" fill="none" xmlns="http://www.w3.org/2000/svg">
<path d="M11.3843 19.5845C11.7502 19.2272 11.7425 18.656 11.3667 18.3088L2.42796 10.0471L11.1375 1.54368C11.5035 1.18639 11.4957 0.615216 11.12 0.268012C10.7443 -0.0791924 10.1431 -0.0709693 9.77712 0.28638L0.40491 9.4369C0.22915 9.60849 0.132267 9.83928 0.135539 10.0785C0.138811 10.3177 0.242033 10.5458 0.42242 10.7125L10.0414 19.6028C10.417 19.95 11.0182 19.9418 11.3843 19.5845Z" fill="white"/>
<path d="M11.3843 19.5845C11.7502 19.2272 11.7425 18.656 11.3667 18.3088L2.42796 10.0471L11.1375 1.54368C11.5035 1.18639 11.4957 0.615216 11.12 0.268012C10.7443 -0.0791924 10.1431 -0.0709693 9.77712 0.28638L0.40491 9.4369C0.22915 9.60849 0.132267 9.83928 0.135539 10.0785C0.138811 10.3177 0.242033 10.5458 0.42242 10.7125L10.0414 19.6028C10.417 19.95 11.0182 19.9418 11.3843 19.5845Z" stroke="black"/>
</svg>
